Final Project: Business Analysis - Tarana-Fundamentals of Data Analystics
…
Bias Reduction in Generalized Linear Models (brglm)

## [1] "accuracy is 81.0641552729707 %"

##           Truth
## Prediction     0     1
##          0 16728   693
##          1  3268   229

Logistic Model with WOE Demographic Data

To compare with the logistic regression model with Demographic data, now we will build the same model with WOE Demographic data as below following the same procedure that we have done in case of demographic data:

## # A tibble: 69,721 x 12
##         id   age gender marital dependents income education profession residence
##      <dbl> <dbl> <chr>  <chr>        <dbl>  <dbl> <chr>     <chr>      <chr>    
##  1  9.54e8    48 F      Married          2     40 Bachelor  SAL        Rented   
##  2  4.33e8    31 M      Married          4     55 Professi… SE_PROF    Rented   
##  3  9.41e8    32 M      Single           2     46 Bachelor  SE_PROF    Rented   
##  4  3.92e8    43 M      Married          1     53 Bachelor  SE         Rented   
##  5  1.82e8    35 F      Married          5     44 Professi… SAL        Rented   
##  6  5.32e8    42 M      Married          2     55 Professi… SAL        Rented   
##  7  7.48e7    34 M      Married          2     49 Masters   SE_PROF    Rented   
##  8  7.83e8    30 M      Married          3     48 Phd       SAL        Rented   
##  9  9.70e7    22 M      Single           1     38 Bachelor  SE_PROF    Rented   
## 10  5.48e8    37 M      Married          1     43 Bachelor  SAL        Rented   
## # … with 69,711 more rows, and 3 more variables: residence_months <dbl>,
## #   company_months <dbl>, performance_tag <dbl>
…
## 
## Call:
##  ranger::ranger(x = maybe_data_frame(x), y = y, mtry = min_cols(~10,      x), num.trees = ~5000, min.node.size = min_rows(~10, x),      importance = ~"impurity", num.threads = 1, verbose = FALSE,      seed = sample.int(10^5, 1), probability = TRUE) 
## 
## Type:                             Probability estimation 
## Number of trees:                  5000 
## Sample size:                      48847 
## Number of independent variables:  10 
## Mtry:                             10 
## Target node size:                 10 
## Variable importance mode:         impurity 
## Splitrule:                        gini 
## OOB prediction error (Brier s.):  0.04272424

## # A tibble: 20,874 x 14
##    .pred_0 .pred_1        id   age gender marital dependents income education   
##      <dbl>   <dbl>     <dbl> <dbl> <chr>  <chr>        <dbl>  <dbl> <chr>       
##  1   0.997 0.00333 954457215    35 F      Married          2     43 Bachelor    
##  2   0.991 0.00935 532217204    29 M      Married          2     58 Professional
##  3   0.982 0.0180   74788849    21 M      Married          2     52 Masters     
##  4   0.846 0.154   782743811    17 M      Married          3     51 Phd         
##  5   0.994 0.00642 179296033    25 M      Married          4     57 Bachelor    
##  6   0.992 0.00790 900107201    28 F      Married          5     49 Professional
##  7   0.972 0.0283  576841684    23 F      Married          2     46 Professional
##  8   0.912 0.0876  817454930    16 M      Married          4     31 Bachelor    
##  9   0.990 0.00969  78368564    23 M      Married          2     53 Masters     
## 10   0.965 0.0347  372055158    20 M      Married          4     57 Bachelor    
## # … with 20,864 more rows, and 5 more variables: profession <chr>,
## #   residence <chr>, residence_months <dbl>, company_months <dbl>,
## #   performance_tag <fct>
…
