…
Exploratory Data Analysis:

This is my second exploratory analysis report for the course of Fundamentals of Business Analysis. This report concerns a dataset about Crimes report from 2001 of a city of USA. Here, I have performed some very basic analysis with the dataset.

Dataset: Crimes-2001 to present data (Chicago City)

This dataset is about reported incidents of crime (with the exception of murders where data exists for each victim) that occurred in the City of Chicago from 2001 to the most recent days.

Data is extracted from the Chicago Police Department’s CLEAR (Citizen Law Enforcement Analysis and Reporting) system.
This dataset seems interesting to me because, I think these data will result some significant results that might be the best for visualization. Also, my attraction for crime series or movies instigates me to chose this dataset.

The data is available online at the following link as Crimes_-_2001_to_Present.csv: https://data.cityofchicago.org/Public-Safety/Crimes-2001-to-present-Dashboard/5cd6-ry5g

## # A tibble: 1,048,575 x 10
##    IUCR  `Primary Type`    Arrest Domestic  Beat District  Ward `Community Area`
##    <chr> <chr>             <lgl>  <lgl>    <dbl>    <dbl> <dbl>            <dbl>
##  1 486   BATTERY           FALSE  TRUE       924        9    12               61
##  2 870   THEFT             FALSE  FALSE     1511       15    29               25
##  3 810   THEFT             FALSE  TRUE       631        6     8               44
##  4 2023  NARCOTICS         TRUE   FALSE     1412       14    35               21
##  5 560   ASSAULT           FALSE  TRUE      1522       15    28               25
##  6 610   BURGLARY          FALSE  FALSE      614        6    21               71
##  7 620   BURGLARY          FALSE  FALSE     1434       14    32               24
##  8 860   THEFT             TRUE   FALSE     1034       10    25               31
##  9 320   ROBBERY           FALSE  TRUE      1222       12    27               27
## 10 1153  DECEPTIVE PRACTI… FALSE  FALSE      824        8    15               63
## # … with 1,048,565 more rows, and 2 more variables: FBI Code <chr>, Year <dbl>
…
