Tree based Method: Random Forest - Tarana-Fundamentals of Data Analystics
…
Random forests is used to rank the importance of variables in our classification problem. From the above figure, we find that duration is the most important variable with age, balance and day etc where the feature education is less significant. This gives a clear idea about taking the decision for a customer subscription in case of term deposit.

Predict the model

Now to make predictions the test dataset is used using the predictions function and we see that a new column has added named ‘.pred_class’. This prediction is made based on the all the dependent variables. As we know now variable importance, based on that, we can use the most significant variables.

bank_test$y <- ifelse(bank_test$y == "yes", 1, 0)
bank_test$y <- factor(bank_test$y, levels = c(0, 1))
#head(bank_test)
predictions <- predict(model, new_data = bank_test) %>%
  bind_cols(bank_test) 
predictions

## # A tibble: 1,357 x 18
##    .pred_class   age job         marital education default balance housing loan 
##    <fct>       <int> <chr>       <chr>   <chr>     <chr>     <int> <chr>   <chr>
##  1 0              35 management  single  tertiary  no         1350 yes     no   
##  2 0              35 management  single  tertiary  no          747 no      no   
##  3 0              31 blue-collar married secondary no          360 yes     yes  
##  4 0              44 services    single  secondary no          106 no      no   
##  5 1              32 management  single  tertiary  no         2536 yes     no   
##  6 0              61 admin.      married unknown   no         4629 yes     no   
##  7 1              37 technician  single  secondary no          228 yes     no   
##  8 0              57 management  married secondary no           82 no      yes  
##  9 0              54 technician  divorc… secondary no          784 yes     yes  
## 10 0              48 management  married tertiary  no         5887 no      no   
## # … with 1,347 more rows, and 9 more variables: contact <chr>, day <int>,
## #   month <chr>, duration <int>, campaign <int>, pdays <int>, previous <int>,
## #   poutcome <chr>, y <fct>
…
